<?xml version="1.0" encoding="UTF-8"?>
<!DOCTYPE svg PUBLIC "-//W3C//DTD SVG 1.1//EN" 
"http://www.w3.org/Graphics/SVG/1.1/DTD/svg11.dtd">

<svg width="100%" height="100%" version="1.1"
xmlns="http://www.w3.org/2000/svg">
<line x1="13.81561886658266" y1="301.5134624603288" x2="13.81561886658266" y2="291.5134624603288" stroke="rgb(35%, 35%, 35%)" stroke-width="1.0" />
<line x1="13.81561886658266" y1="281.5134624603288" x2="13.81561886658266" y2="271.5134624603288" stroke="rgb(35%, 35%, 35%)" stroke-width="1.0" />
<line x1="13.81561886658266" y1="261.5134624603288" x2="13.81561886658266" y2="251.5134624603288" stroke="rgb(35%, 35%, 35%)" stroke-width="1.0" />
<line x1="13.81561886658266" y1="241.5134624603288" x2="13.81561886658266" y2="231.5134624603288" stroke="rgb(35%, 35%, 35%)" stroke-width="1.0" />
<line x1="13.81561886658266" y1="221.5134624603288" x2="13.81561886658266" y2="211.5134624603288" stroke="rgb(35%, 35%, 35%)" stroke-width="1.0" />
<line x1="12.72544608755802" y1="201.6337572118662" x2="11.090172779024641" y2="194.3141360473564" stroke="rgb(35%, 35%, 35%)" stroke-width="1.0" />
<line x1="13.063228922223008" y1="185.48264277699073" x2="17.658112036916435" y2="179.5549094877945" stroke="rgb(35%, 35%, 35%)" stroke-width="1.0" />
<line x1="22.849245462951387" y1="171.0785195582473" x2="27.105054470575283" y2="162.02931574295906" stroke="rgb(35%, 35%, 35%)" stroke-width="1.0" />
<line x1="31.360863478199185" y1="152.9801119276708" x2="35.616672485823074" y2="143.9309081123826" stroke="rgb(35%, 35%, 35%)" stroke-width="1.0" />
<line x1="39.872481493446976" y1="134.88170429709436" x2="44.12829050107088" y2="125.83250048180611" stroke="rgb(35%, 35%, 35%)" stroke-width="1.0" />
<line x1="46.49635374832768" y1="116.31366952675666" x2="46.85658472831768" y2="108.82247433546269" stroke="rgb(35%, 35%, 35%)" stroke-width="1.0" />
<line x1="45.412804743004116" y1="99.12034231987849" x2="42.04492728548729" y2="89.70453638352075" stroke="rgb(35%, 35%, 35%)" stroke-width="1.0" />
<line x1="38.677049827970464" y1="80.288730447163" x2="35.30917237045363" y2="70.8729245108052" stroke="rgb(35%, 35%, 35%)" stroke-width="1.0" />
<line x1="31.941294912936797" y1="61.45711857444746" x2="28.57341745541998" y2="52.04131263808972" stroke="rgb(35%, 35%, 35%)" stroke-width="1.0" />
<line x1="24.2858371896289" y1="43.06479739580607" x2="20.380356262905458" y2="36.66184845564828" stroke="rgb(35%, 35%, 35%)" stroke-width="1.0" />
<line x1="19.44318206028285" y1="27.679120503779075" x2="21.942894980427646" y2="20.6079132719035" stroke="rgb(35%, 35%, 35%)" stroke-width="1.0" />
<line x1="28.317265283016575" y1="14.209858865380681" x2="35.37915340608071" y2="11.683938728758392" stroke="rgb(35%, 35%, 35%)" stroke-width="1.0" />
<line x1="44.36529520537703" y1="12.587792979339497" x2="50.7826840499026" y2="16.469500956174784" stroke="rgb(35%, 35%, 35%)" stroke-width="1.0" />
<line x1="55.75518578772133" y1="24.00885924522987" x2="56.79658511312297" y2="31.43624262326557" stroke="rgb(35%, 35%, 35%)" stroke-width="1.0" />
<line x1="59.174786748582676" y1="41.09571090116003" x2="62.5426642060995" y2="50.511516837517775" stroke="rgb(35%, 35%, 35%)" stroke-width="1.0" />
<line x1="65.91054166361634" y1="59.92732277387552" x2="69.27841912113317" y2="69.34312871023332" stroke="rgb(35%, 35%, 35%)" stroke-width="1.0" />
<line x1="72.64629657865001" y1="78.75893464659106" x2="76.01417403616682" y2="88.1747405829488" stroke="rgb(35%, 35%, 35%)" stroke-width="1.0" />
<line x1="81.05124599494158" y1="96.59161881954887" x2="86.08094583996609" y2="102.15508172218071" stroke="rgb(35%, 35%, 35%)" stroke-width="1.0" />
<line x1="89.19392032653757" y1="110.85828603800724" x2="88.83368221137029" y2="118.3496296091152" stroke="rgb(35%, 35%, 35%)" stroke-width="1.0" />
<line x1="84.89997602125233" y1="126.71397842578313" x2="79.35965485124271" y2="131.76915807967703" stroke="rgb(35%, 35%, 35%)" stroke-width="1.0" />
<line x1="73.53820290075767" y1="139.66387975658375" x2="69.28239389313376" y2="148.713083571872" stroke="rgb(35%, 35%, 35%)" stroke-width="1.0" />
<line x1="65.02658488550986" y1="157.76228738716026" x2="60.77077587788597" y2="166.8114912024485" stroke="rgb(35%, 35%, 35%)" stroke-width="1.0" />
<line x1="56.51496687026207" y1="175.86069501773676" x2="52.259157862638176" y2="184.90989883302495" stroke="rgb(35%, 35%, 35%)" stroke-width="1.0" />
<line x1="49.041072075328074" y1="194.3142040891433" x2="47.40580015008082" y2="201.6337591118546" stroke="rgb(35%, 35%, 35%)" stroke-width="1.0" />
<line x1="46.31561886658266" y1="211.5134624603288" x2="46.31561886658266" y2="221.5134624603288" stroke="rgb(35%, 35%, 35%)" stroke-width="1.0" />
<line x1="46.31561886658266" y1="231.5134624603288" x2="46.31561886658266" y2="241.5134624603288" stroke="rgb(35%, 35%, 35%)" stroke-width="1.0" />
<line x1="46.31561886658266" y1="251.5134624603288" x2="46.31561886658266" y2="261.5134624603288" stroke="rgb(35%, 35%, 35%)" stroke-width="1.0" />
<line x1="46.31561886658266" y1="271.5134624603288" x2="46.31561886658266" y2="281.5134624603288" stroke="rgb(35%, 35%, 35%)" stroke-width="1.0" />
<line x1="46.31561886658266" y1="291.5134624603288" x2="46.31561886658266" y2="301.5134624603288" stroke="rgb(35%, 35%, 35%)" stroke-width="1.0" />
<line x1="18.81561886658266" y1="306.5134624603288" x2="41.31561886658266" y2="306.5134624603288" stroke="rgb(0%, 0%, 100%)" stroke-width="1.0" />
<line x1="18.81561886658266" y1="286.5134624603288" x2="41.31561886658266" y2="286.5134624603288" stroke="rgb(0%, 0%, 100%)" stroke-width="1.0" />
<line x1="18.81561886658266" y1="266.5134624603288" x2="41.31561886658266" y2="266.5134624603288" stroke="rgb(0%, 0%, 100%)" stroke-width="1.0" />
<line x1="18.81561886658266" y1="246.5134624603288" x2="41.31561886658266" y2="246.5134624603288" stroke="rgb(0%, 0%, 100%)" stroke-width="1.0" />
<line x1="18.81561886658266" y1="226.5134624603288" x2="41.31561886658266" y2="226.5134624603288" stroke="rgb(0%, 0%, 100%)" stroke-width="1.0" />
<line x1="18.81561886658266" y1="206.5134624603288" x2="41.31561886658266" y2="206.5134624603288" stroke="rgb(0%, 0%, 100%)" stroke-width="1.0" />
<line x1="25.245942866783565" y1="177.73102596970338" x2="45.6066514511821" y2="187.30659623685713" stroke="rgb(0%, 0%, 100%)" stroke-width="1.0" />
<line x1="33.75756088203135" y1="159.63261833912688" x2="54.118269466429894" y2="169.2081886062807" stroke="rgb(0%, 0%, 100%)" stroke-width="1.0" />
<line x1="42.26917889727915" y1="141.53421070855043" x2="62.629887481677684" y2="151.10978097570418" stroke="rgb(0%, 0%, 100%)" stroke-width="1.0" />
<line x1="50.78079691252695" y1="123.43580307797393" x2="71.14150549692549" y2="133.01137334512768" stroke="rgb(0%, 0%, 100%)" stroke-width="1.0" />
<line x1="51.80464643994141" y1="102.14430655929894" x2="72.99020979674637" y2="94.56658227988609" stroke="rgb(0%, 0%, 100%)" stroke-width="1.0" />
<line x1="45.068891524907755" y1="83.31269468658346" x2="66.25445488171272" y2="75.73497040717061" stroke="rgb(0%, 0%, 100%)" stroke-width="1.0" />
<line x1="38.333136609874096" y1="64.48108281386794" x2="59.51869996667904" y2="56.90335853445504" stroke="rgb(0%, 0%, 100%)" stroke-width="1.0" />
<line x1="31.597381694840436" y1="45.64947094115246" x2="52.782945051645385" y2="38.07174666173955" stroke="rgb(0%, 0%, 100%)" stroke-width="1.0" />
<circle cx="13.81561886658266" cy="306.5134624603288" r="5.0" stroke="none" stroke-width="1.0" fill="rgb(94%, 94%, 94%)"/>
<circle cx="13.81561886658266" cy="306.5134624603288" r="5.0" stroke="rgb(35%, 35%, 35%)" stroke-width="1.0" fill="none"/>
<text x="13.81561886658266" y="309.5134624603288" text-anchor="middle" font-family="Verdana" font-size="7.5" fill="rgb(0%, 0%, 0%)" > </text>
<circle cx="13.81561886658266" cy="286.5134624603288" r="5.0" stroke="none" stroke-width="1.0" fill="rgb(94%, 94%, 94%)"/>
<circle cx="13.81561886658266" cy="286.5134624603288" r="5.0" stroke="rgb(35%, 35%, 35%)" stroke-width="1.0" fill="none"/>
<text x="13.81561886658266" y="289.5134624603288" text-anchor="middle" font-family="Verdana" font-size="7.5" fill="rgb(0%, 0%, 0%)" > </text>
<circle cx="13.81561886658266" cy="266.5134624603288" r="5.0" stroke="none" stroke-width="1.0" fill="rgb(94%, 94%, 94%)"/>
<circle cx="13.81561886658266" cy="266.5134624603288" r="5.0" stroke="rgb(35%, 35%, 35%)" stroke-width="1.0" fill="none"/>
<text x="13.81561886658266" y="269.5134624603288" text-anchor="middle" font-family="Verdana" font-size="7.5" fill="rgb(0%, 0%, 0%)" > </text>
<circle cx="13.81561886658266" cy="246.5134624603288" r="5.0" stroke="none" stroke-width="1.0" fill="rgb(94%, 94%, 94%)"/>
<circle cx="13.81561886658266" cy="246.5134624603288" r="5.0" stroke="rgb(35%, 35%, 35%)" stroke-width="1.0" fill="none"/>
<text x="13.81561886658266" y="249.5134624603288" text-anchor="middle" font-family="Verdana" font-size="7.5" fill="rgb(0%, 0%, 0%)" > </text>
<circle cx="13.81561886658266" cy="226.5134624603288" r="5.0" stroke="none" stroke-width="1.0" fill="rgb(94%, 94%, 94%)"/>
<circle cx="13.81561886658266" cy="226.5134624603288" r="5.0" stroke="rgb(35%, 35%, 35%)" stroke-width="1.0" fill="none"/>
<text x="13.81561886658266" y="229.5134624603288" text-anchor="middle" font-family="Verdana" font-size="7.5" fill="rgb(0%, 0%, 0%)" > </text>
<circle cx="13.81561886658266" cy="206.5134624603288" r="5.0" stroke="none" stroke-width="1.0" fill="rgb(94%, 94%, 94%)"/>
<circle cx="13.81561886658266" cy="206.5134624603288" r="5.0" stroke="rgb(35%, 35%, 35%)" stroke-width="1.0" fill="none"/>
<text x="13.81561886658266" y="209.5134624603288" text-anchor="middle" font-family="Verdana" font-size="7.5" fill="rgb(0%, 0%, 0%)" > </text>
<circle cx="10.0" cy="189.4344307988938" r="5.0" stroke="none" stroke-width="1.0" fill="rgb(94%, 94%, 94%)"/>
<circle cx="10.0" cy="189.4344307988938" r="5.0" stroke="rgb(35%, 35%, 35%)" stroke-width="1.0" fill="none"/>
<text x="10.0" y="192.4344307988938" text-anchor="middle" font-family="Verdana" font-size="7.5" fill="rgb(0%, 0%, 0%)" > </text>
<circle cx="20.72134095913944" cy="175.60312146589143" r="5.0" stroke="none" stroke-width="1.0" fill="rgb(94%, 94%, 94%)"/>
<circle cx="20.72134095913944" cy="175.60312146589143" r="5.0" stroke="rgb(35%, 35%, 35%)" stroke-width="1.0" fill="none"/>
<text x="20.72134095913944" y="178.60312146589143" text-anchor="middle" font-family="Verdana" font-size="7.5" fill="rgb(0%, 0%, 0%)" > </text>
<circle cx="29.23295897438723" cy="157.50471383531493" r="5.0" stroke="none" stroke-width="1.0" fill="rgb(94%, 94%, 94%)"/>
<circle cx="29.23295897438723" cy="157.50471383531493" r="5.0" stroke="rgb(35%, 35%, 35%)" stroke-width="1.0" fill="none"/>
<text x="29.23295897438723" y="160.50471383531493" text-anchor="middle" font-family="Verdana" font-size="7.5" fill="rgb(0%, 0%, 0%)" > </text>
<circle cx="37.74457698963503" cy="139.40630620473848" r="5.0" stroke="none" stroke-width="1.0" fill="rgb(94%, 94%, 94%)"/>
<circle cx="37.74457698963503" cy="139.40630620473848" r="5.0" stroke="rgb(35%, 35%, 35%)" stroke-width="1.0" fill="none"/>
<text x="37.74457698963503" y="142.40630620473848" text-anchor="middle" font-family="Verdana" font-size="7.5" fill="rgb(0%, 0%, 0%)" > </text>
<circle cx="46.25619500488283" cy="121.30789857416198" r="5.0" stroke="none" stroke-width="1.0" fill="rgb(94%, 94%, 94%)"/>
<circle cx="46.25619500488283" cy="121.30789857416198" r="5.0" stroke="rgb(35%, 35%, 35%)" stroke-width="1.0" fill="none"/>
<text x="46.25619500488283" y="124.30789857416198" text-anchor="middle" font-family="Verdana" font-size="7.5" fill="rgb(0%, 0%, 0%)" > </text>
<circle cx="47.09674347176253" cy="103.82824528805736" r="5.0" stroke="none" stroke-width="1.0" fill="rgb(94%, 94%, 94%)"/>
<circle cx="47.09674347176253" cy="103.82824528805736" r="5.0" stroke="rgb(35%, 35%, 35%)" stroke-width="1.0" fill="none"/>
<text x="47.09674347176253" y="106.82824528805736" text-anchor="middle" font-family="Verdana" font-size="7.5" fill="rgb(0%, 0%, 0%)" > </text>
<circle cx="40.36098855672888" cy="84.99663341534188" r="5.0" stroke="none" stroke-width="1.0" fill="rgb(94%, 94%, 94%)"/>
<circle cx="40.36098855672888" cy="84.99663341534188" r="5.0" stroke="rgb(35%, 35%, 35%)" stroke-width="1.0" fill="none"/>
<text x="40.36098855672888" y="87.99663341534188" text-anchor="middle" font-family="Verdana" font-size="7.5" fill="rgb(0%, 0%, 0%)" > </text>
<circle cx="33.62523364169522" cy="66.16502154262633" r="5.0" stroke="none" stroke-width="1.0" fill="rgb(94%, 94%, 94%)"/>
<circle cx="33.62523364169522" cy="66.16502154262633" r="5.0" stroke="rgb(35%, 35%, 35%)" stroke-width="1.0" fill="none"/>
<text x="33.62523364169522" y="69.16502154262633" text-anchor="middle" font-family="Verdana" font-size="7.5" fill="rgb(0%, 0%, 0%)" > </text>
<circle cx="26.889478726661558" cy="47.33340966991085" r="5.0" stroke="none" stroke-width="1.0" fill="rgb(94%, 94%, 94%)"/>
<circle cx="26.889478726661558" cy="47.33340966991085" r="5.0" stroke="rgb(35%, 35%, 35%)" stroke-width="1.0" fill="none"/>
<text x="26.889478726661558" y="50.33340966991085" text-anchor="middle" font-family="Verdana" font-size="7.5" fill="rgb(0%, 0%, 0%)" > </text>
<circle cx="17.7767147258728" cy="32.3932361815435" r="5.0" stroke="none" stroke-width="1.0" fill="rgb(94%, 94%, 94%)"/>
<circle cx="17.7767147258728" cy="32.3932361815435" r="5.0" stroke="rgb(35%, 35%, 35%)" stroke-width="1.0" fill="none"/>
<text x="17.7767147258728" y="35.3932361815435" text-anchor="middle" font-family="Verdana" font-size="7.5" fill="rgb(0%, 0%, 0%)" > </text>
<circle cx="23.609362314837696" cy="15.893797594139073" r="5.0" stroke="none" stroke-width="1.0" fill="rgb(94%, 94%, 94%)"/>
<circle cx="23.609362314837696" cy="15.893797594139073" r="5.0" stroke="rgb(35%, 35%, 35%)" stroke-width="1.0" fill="none"/>
<text x="23.609362314837696" y="18.893797594139073" text-anchor="middle" font-family="Verdana" font-size="7.5" fill="rgb(0%, 0%, 0%)" > </text>
<circle cx="40.08705637425959" cy="10.0" r="5.0" stroke="none" stroke-width="1.0" fill="rgb(94%, 94%, 94%)"/>
<circle cx="40.08705637425959" cy="10.0" r="5.0" stroke="rgb(35%, 35%, 35%)" stroke-width="1.0" fill="none"/>
<text x="40.08705637425959" y="13.0" text-anchor="middle" font-family="Verdana" font-size="7.5" fill="rgb(0%, 0%, 0%)" > </text>
<circle cx="55.06092288102005" cy="19.05729393551428" r="5.0" stroke="none" stroke-width="1.0" fill="rgb(94%, 94%, 94%)"/>
<circle cx="55.06092288102005" cy="19.05729393551428" r="5.0" stroke="rgb(35%, 35%, 35%)" stroke-width="1.0" fill="none"/>
<text x="55.06092288102005" y="22.05729393551428" text-anchor="middle" font-family="Verdana" font-size="7.5" fill="rgb(0%, 0%, 0%)" > </text>
<circle cx="57.490848019824256" cy="36.38780793298116" r="5.0" stroke="none" stroke-width="1.0" fill="rgb(94%, 94%, 94%)"/>
<circle cx="57.490848019824256" cy="36.38780793298116" r="5.0" stroke="rgb(35%, 35%, 35%)" stroke-width="1.0" fill="none"/>
<text x="57.490848019824256" y="39.38780793298116" text-anchor="middle" font-family="Verdana" font-size="7.5" fill="rgb(0%, 0%, 0%)" > </text>
<circle cx="64.22660293485792" cy="55.219419805696646" r="5.0" stroke="none" stroke-width="1.0" fill="rgb(94%, 94%, 94%)"/>
<circle cx="64.22660293485792" cy="55.219419805696646" r="5.0" stroke="rgb(35%, 35%, 35%)" stroke-width="1.0" fill="none"/>
<text x="64.22660293485792" y="58.219419805696646" text-anchor="middle" font-family="Verdana" font-size="7.5" fill="rgb(0%, 0%, 0%)" > </text>
<circle cx="70.96235784989159" cy="74.05103167841219" r="5.0" stroke="none" stroke-width="1.0" fill="rgb(94%, 94%, 94%)"/>
<circle cx="70.96235784989159" cy="74.05103167841219" r="5.0" stroke="rgb(35%, 35%, 35%)" stroke-width="1.0" fill="none"/>
<text x="70.96235784989159" y="77.05103167841219" text-anchor="middle" font-family="Verdana" font-size="7.5" fill="rgb(0%, 0%, 0%)" > </text>
<circle cx="77.69811276492524" cy="92.88264355112767" r="5.0" stroke="none" stroke-width="1.0" fill="rgb(94%, 94%, 94%)"/>
<circle cx="77.69811276492524" cy="92.88264355112767" r="5.0" stroke="rgb(35%, 35%, 35%)" stroke-width="1.0" fill="none"/>
<text x="77.69811276492524" y="95.88264355112767" text-anchor="middle" font-family="Verdana" font-size="7.5" fill="rgb(0%, 0%, 0%)" > </text>
<circle cx="89.43407906998243" cy="105.86405699060191" r="5.0" stroke="none" stroke-width="1.0" fill="rgb(94%, 94%, 94%)"/>
<circle cx="89.43407906998243" cy="105.86405699060191" r="5.0" stroke="rgb(35%, 35%, 35%)" stroke-width="1.0" fill="none"/>
<text x="89.43407906998243" y="108.86405699060191" text-anchor="middle" font-family="Verdana" font-size="7.5" fill="rgb(0%, 0%, 0%)" > </text>
<circle cx="88.59352346792542" cy="123.34385865652052" r="5.0" stroke="none" stroke-width="1.0" fill="rgb(94%, 94%, 94%)"/>
<circle cx="88.59352346792542" cy="123.34385865652052" r="5.0" stroke="rgb(35%, 35%, 35%)" stroke-width="1.0" fill="none"/>
<text x="88.59352346792542" y="126.34385865652052" text-anchor="middle" font-family="Verdana" font-size="7.5" fill="rgb(0%, 0%, 0%)" > </text>
<circle cx="75.66610740456962" cy="135.13927784893963" r="5.0" stroke="none" stroke-width="1.0" fill="rgb(94%, 94%, 94%)"/>
<circle cx="75.66610740456962" cy="135.13927784893963" r="5.0" stroke="rgb(35%, 35%, 35%)" stroke-width="1.0" fill="none"/>
<text x="75.66610740456962" y="138.13927784893963" text-anchor="middle" font-family="Verdana" font-size="7.5" fill="rgb(0%, 0%, 0%)" > </text>
<circle cx="67.15448938932181" cy="153.23768547951613" r="5.0" stroke="none" stroke-width="1.0" fill="rgb(94%, 94%, 94%)"/>
<circle cx="67.15448938932181" cy="153.23768547951613" r="5.0" stroke="rgb(35%, 35%, 35%)" stroke-width="1.0" fill="none"/>
<text x="67.15448938932181" y="156.23768547951613" text-anchor="middle" font-family="Verdana" font-size="7.5" fill="rgb(0%, 0%, 0%)" > </text>
<circle cx="58.64287137407402" cy="171.33609311009263" r="5.0" stroke="none" stroke-width="1.0" fill="rgb(94%, 94%, 94%)"/>
<circle cx="58.64287137407402" cy="171.33609311009263" r="5.0" stroke="rgb(35%, 35%, 35%)" stroke-width="1.0" fill="none"/>
<text x="58.64287137407402" y="174.33609311009263" text-anchor="middle" font-family="Verdana" font-size="7.5" fill="rgb(0%, 0%, 0%)" > </text>
<circle cx="50.13125335882623" cy="189.43450074066908" r="5.0" stroke="none" stroke-width="1.0" fill="rgb(94%, 94%, 94%)"/>
<circle cx="50.13125335882623" cy="189.43450074066908" r="5.0" stroke="rgb(35%, 35%, 35%)" stroke-width="1.0" fill="none"/>
<text x="50.13125335882623" y="192.43450074066908" text-anchor="middle" font-family="Verdana" font-size="7.5" fill="rgb(0%, 0%, 0%)" > </text>
<circle cx="46.31561886658266" cy="206.5134624603288" r="5.0" stroke="none" stroke-width="1.0" fill="rgb(94%, 94%, 94%)"/>
<circle cx="46.31561886658266" cy="206.5134624603288" r="5.0" stroke="rgb(35%, 35%, 35%)" stroke-width="1.0" fill="none"/>
<text x="46.31561886658266" y="209.5134624603288" text-anchor="middle" font-family="Verdana" font-size="7.5" fill="rgb(0%, 0%, 0%)" > </text>
<circle cx="46.31561886658266" cy="226.5134624603288" r="5.0" stroke="none" stroke-width="1.0" fill="rgb(94%, 94%, 94%)"/>
<circle cx="46.31561886658266" cy="226.5134624603288" r="5.0" stroke="rgb(35%, 35%, 35%)" stroke-width="1.0" fill="none"/>
<text x="46.31561886658266" y="229.5134624603288" text-anchor="middle" font-family="Verdana" font-size="7.5" fill="rgb(0%, 0%, 0%)" > </text>
<circle cx="46.31561886658266" cy="246.5134624603288" r="5.0" stroke="none" stroke-width="1.0" fill="rgb(94%, 94%, 94%)"/>
<circle cx="46.31561886658266" cy="246.5134624603288" r="5.0" stroke="rgb(35%, 35%, 35%)" stroke-width="1.0" fill="none"/>
<text x="46.31561886658266" y="249.5134624603288" text-anchor="middle" font-family="Verdana" font-size="7.5" fill="rgb(0%, 0%, 0%)" > </text>
<circle cx="46.31561886658266" cy="266.5134624603288" r="5.0" stroke="none" stroke-width="1.0" fill="rgb(94%, 94%, 94%)"/>
<circle cx="46.31561886658266" cy="266.5134624603288" r="5.0" stroke="rgb(35%, 35%, 35%)" stroke-width="1.0" fill="none"/>
<text x="46.31561886658266" y="269.5134624603288" text-anchor="middle" font-family="Verdana" font-size="7.5" fill="rgb(0%, 0%, 0%)" > </text>
<circle cx="46.31561886658266" cy="286.5134624603288" r="5.0" stroke="none" stroke-width="1.0" fill="rgb(94%, 94%, 94%)"/>
<circle cx="46.31561886658266" cy="286.5134624603288" r="5.0" stroke="rgb(35%, 35%, 35%)" stroke-width="1.0" fill="none"/>
<text x="46.31561886658266" y="289.5134624603288" text-anchor="middle" font-family="Verdana" font-size="7.5" fill="rgb(0%, 0%, 0%)" > </text>
<circle cx="46.31561886658266" cy="306.5134624603288" r="5.0" stroke="none" stroke-width="1.0" fill="rgb(94%, 94%, 94%)"/>
<circle cx="46.31561886658266" cy="306.5134624603288" r="5.0" stroke="rgb(35%, 35%, 35%)" stroke-width="1.0" fill="none"/>
<text x="46.31561886658266" y="309.5134624603288" text-anchor="middle" font-family="Verdana" font-size="7.5" fill="rgb(0%, 0%, 0%)" > </text>
<line x1="13.81561886658266" y1="314.0134624603288" x2="13.81561886658266" y2="319.0134624603288" stroke="rgb(25%, 25%, 25%)" stroke-width="1.0" />
<text x="13.81561886658266" y="329.5134624603288" text-anchor="middle" font-family="Verdana" font-size="7.5" fill="rgb(25%, 25%, 25%)" >1</text>
<line x1="30.957674128168847" y1="136.21444944902058" x2="26.43307222052472" y2="134.08654494520863" stroke="rgb(25%, 25%, 25%)" stroke-width="1.0" />
<text x="19.64616935905854" y="133.8946881894907" text-anchor="middle" font-family="Verdana" font-size="7.5" fill="rgb(25%, 25%, 25%)" >10</text>
<line x1="64.20029261701876" y1="33.03618844425972" x2="68.67325568181509" y2="30.801775451778724" stroke="rgb(25%, 25%, 25%)" stroke-width="1.0" />
<text x="75.3827002790096" y="30.450155963057284" text-anchor="middle" font-family="Verdana" font-size="7.5" fill="rgb(25%, 25%, 25%)" >20</text>
<line x1="53.81561886658267" y1="206.5134624603288" x2="58.81561886658267" y2="206.5134624603288" stroke="rgb(25%, 25%, 25%)" stroke-width="1.0" />
<text x="66.31561886658267" y="209.5134624603288" text-anchor="middle" font-family="Verdana" font-size="7.5" fill="rgb(25%, 25%, 25%)" >30</text>
<line x1="46.31561886658266" y1="314.0134624603288" x2="46.31561886658266" y2="319.0134624603288" stroke="rgb(25%, 25%, 25%)" stroke-width="1.0" />
<text x="46.31561886658266" y="329.5134624603288" text-anchor="middle" font-family="Verdana" font-size="7.5" fill="rgb(25%, 25%, 25%)" >35</text>
</svg>
