<?xml version="1.0" encoding="UTF-8"?>
<!DOCTYPE svg PUBLIC "-//W3C//DTD SVG 1.1//EN" 
"http://www.w3.org/Graphics/SVG/1.1/DTD/svg11.dtd">

<svg width="100%" height="100%" version="1.1"
xmlns="http://www.w3.org/2000/svg">
<line x1="85.37492949521939" y1="189.9427233107403" x2="85.37492949521939" y2="179.9427233107403" stroke="rgb(35%, 35%, 35%)" stroke-width="1.0" />
<line x1="85.37492949521939" y1="169.9427233107403" x2="85.37492949521939" y2="159.9427233107403" stroke="rgb(35%, 35%, 35%)" stroke-width="1.0" />
<line x1="85.37492949521939" y1="149.9427233107403" x2="85.37492949521939" y2="139.9427233107403" stroke="rgb(35%, 35%, 35%)" stroke-width="1.0" />
<line x1="85.37492949521939" y1="129.9427233107403" x2="85.37492949521939" y2="119.94272331074028" stroke="rgb(35%, 35%, 35%)" stroke-width="1.0" />
<line x1="85.37492949521939" y1="109.94272331074028" x2="85.37492949521939" y2="99.94272331074028" stroke="rgb(35%, 35%, 35%)" stroke-width="1.0" />
<line x1="82.87493465549228" y1="90.61259331253723" x2="79.12489982374281" y2="84.11732457788773" stroke="rgb(35%, 35%, 35%)" stroke-width="1.0" />
<line x1="72.29478392367363" y1="77.28718425914957" x2="63.63454180298953" y2="72.28716361807932" stroke="rgb(35%, 35%, 35%)" stroke-width="1.0" />
<line x1="54.9742996823054" y1="67.28714297700907" x2="46.31405756162127" y2="62.28712233593882" stroke="rgb(35%, 35%, 35%)" stroke-width="1.0" />
<line x1="37.653815440937144" y1="57.28710169486857" x2="28.993573320253027" y2="52.28708105379832" stroke="rgb(35%, 35%, 35%)" stroke-width="1.0" />
<line x1="20.473899887973268" y1="47.05803227204811" x2="14.189552371937697" y2="42.964462231062925" stroke="rgb(35%, 35%, 35%)" stroke-width="1.0" />
<line x1="10.08959310477443" y1="35.236226526732025" x2="10.22398316735353" y2="27.737408040208038" stroke="rgb(35%, 35%, 35%)" stroke-width="1.0" />
<line x1="14.59822381584162" y1="20.161042695056864" x2="21.025214519855965" y2="16.295278880069333" stroke="rgb(35%, 35%, 35%)" stroke-width="1.0" />
<line x1="29.768044093888335" y1="15.981871583539572" x2="36.45533731307057" y2="19.37752303553421" stroke="rgb(35%, 35%, 35%)" stroke-width="1.0" />
<line x1="45.24364040373135" y1="24.141294161574933" x2="53.903882524415465" y2="29.141314802645184" stroke="rgb(35%, 35%, 35%)" stroke-width="1.0" />
<line x1="62.5641246450996" y1="34.141335443715434" x2="71.22436676578371" y2="39.141356084785684" stroke="rgb(35%, 35%, 35%)" stroke-width="1.0" />
<line x1="79.88460888646784" y1="44.141376725855935" x2="88.54485100715196" y2="49.141397366926185" stroke="rgb(35%, 35%, 35%)" stroke-width="1.0" />
<line x1="97.87497206748604" y1="51.64141662531307" x2="105.37497206747405" y2="51.64143003209068" stroke="rgb(35%, 35%, 35%)" stroke-width="1.0" />
<line x1="114.70510206566911" y1="49.14144413021532" x2="123.36536206207515" y2="44.14145445076113" stroke="rgb(35%, 35%, 35%)" stroke-width="1.0" />
<line x1="132.02562205848122" y1="39.141464771306886" x2="140.6858820548873" y2="34.1414750918527" stroke="rgb(35%, 35%, 35%)" stroke-width="1.0" />
<line x1="149.34614205129336" y1="29.141485412398453" x2="158.00640204769942" y2="24.141495732944264" stroke="rgb(35%, 35%, 35%)" stroke-width="1.0" />
<line x1="166.06973672950954" y1="18.3153645775659" x2="171.66957045470002" y2="13.32613631565124" stroke="rgb(35%, 35%, 35%)" stroke-width="1.0" />
<line x1="180.33915007763136" y1="10.795111601230644" x2="187.74374779143892" y2="11.987784689693513" stroke="rgb(35%, 35%, 35%)" stroke-width="1.0" />
<line x1="195.1801175704903" y1="17.11302628912719" x2="198.93012770997703" y2="23.608252255405404" stroke="rgb(35%, 35%, 35%)" stroke-width="1.0" />
<line x1="199.65051078879807" y1="32.61095991272174" x2="196.98108041970337" y2="39.61985981954189" stroke="rgb(35%, 35%, 35%)" stroke-width="1.0" />
<line x1="190.4543440292657" y1="45.86240809993916" x2="183.3336231336603" y2="48.21737526025288" stroke="rgb(35%, 35%, 35%)" stroke-width="1.0" />
<line x1="174.25636850592568" y1="52.28734072126397" x2="165.5961085095196" y2="57.28733040071816" stroke="rgb(35%, 35%, 35%)" stroke-width="1.0" />
<line x1="156.93584851311354" y1="62.28732008017241" x2="148.27558851670747" y2="67.2873097596266" stroke="rgb(35%, 35%, 35%)" stroke-width="1.0" />
<line x1="139.6153285203014" y1="72.28729943908084" x2="130.95506852389533" y2="77.28728911853503" stroke="rgb(35%, 35%, 35%)" stroke-width="1.0" />
<line x1="124.12493594555718" y1="84.11740948754161" x2="120.37493207535451" y2="90.6125977814608" stroke="rgb(35%, 35%, 35%)" stroke-width="1.0" />
<line x1="117.87492949521939" y1="99.94272331074028" x2="117.87492949521939" y2="109.94272331074028" stroke="rgb(35%, 35%, 35%)" stroke-width="1.0" />
<line x1="117.87492949521939" y1="119.94272331074028" x2="117.87492949521939" y2="129.9427233107403" stroke="rgb(35%, 35%, 35%)" stroke-width="1.0" />
<line x1="117.87492949521939" y1="139.9427233107403" x2="117.87492949521939" y2="149.9427233107403" stroke="rgb(35%, 35%, 35%)" stroke-width="1.0" />
<line x1="117.87492949521939" y1="159.9427233107403" x2="117.87492949521939" y2="169.9427233107403" stroke="rgb(35%, 35%, 35%)" stroke-width="1.0" />
<line x1="117.87492949521939" y1="179.9427233107403" x2="117.87492949521939" y2="189.9427233107403" stroke="rgb(35%, 35%, 35%)" stroke-width="1.0" />
<line x1="90.37492949521939" y1="194.9427233107403" x2="112.87492949521939" y2="194.9427233107403" stroke="rgb(0%, 0%, 100%)" stroke-width="1.0" />
<line x1="90.37492949521939" y1="174.9427233107403" x2="112.87492949521939" y2="174.9427233107403" stroke="rgb(0%, 0%, 100%)" stroke-width="1.0" />
<line x1="90.37492949521939" y1="154.9427233107403" x2="112.87492949521939" y2="154.9427233107403" stroke="rgb(0%, 0%, 100%)" stroke-width="1.0" />
<line x1="90.37492949521939" y1="134.9427233107403" x2="112.87492949521939" y2="134.9427233107403" stroke="rgb(0%, 0%, 100%)" stroke-width="1.0" />
<line x1="90.37492949521939" y1="114.94272331074028" x2="112.87492949521939" y2="114.94272331074028" stroke="rgb(0%, 0%, 100%)" stroke-width="1.0" />
<line x1="90.37492949521939" y1="94.94272331074028" x2="112.87492949521939" y2="94.94272331074028" stroke="rgb(0%, 0%, 100%)" stroke-width="1.0" />
<line x1="79.12491530455083" y1="75.45707351934263" x2="90.3749617469589" y2="55.971528747803376" stroke="rgb(0%, 0%, 100%)" stroke-width="1.0" />
<line x1="61.80443106318259" y1="65.45703223720213" x2="73.05447750559065" y2="45.971487465662875" stroke="rgb(0%, 0%, 100%)" stroke-width="1.0" />
<line x1="44.48394682181433" y1="55.45699095506163" x2="55.733993264222406" y2="35.971446183522374" stroke="rgb(0%, 0%, 100%)" stroke-width="1.0" />
<line x1="27.163462580446094" y1="45.45694967292113" x2="38.41350902285416" y2="25.971404901381874" stroke="rgb(0%, 0%, 100%)" stroke-width="1.0" />
<line x1="112.87496690719317" y1="55.971568968145476" x2="124.12494368596518" y2="75.45715396005912" stroke="rgb(0%, 0%, 100%)" stroke-width="1.0" />
<line x1="130.1954869000053" y1="45.97158960923704" x2="141.44546367877732" y2="65.45717460115068" stroke="rgb(0%, 0%, 100%)" stroke-width="1.0" />
<line x1="147.51600689281744" y1="35.97161025032861" x2="158.76598367158945" y2="55.45719524224225" stroke="rgb(0%, 0%, 100%)" stroke-width="1.0" />
<line x1="164.83652688562958" y1="25.971630891420176" x2="176.0865036644016" y2="45.45721588333382" stroke="rgb(0%, 0%, 100%)" stroke-width="1.0" />
<circle cx="85.37492949521939" cy="194.9427233107403" r="5.0" stroke="none" stroke-width="1.0" fill="rgb(94%, 94%, 94%)"/>
<circle cx="85.37492949521939" cy="194.9427233107403" r="5.0" stroke="rgb(35%, 35%, 35%)" stroke-width="1.0" fill="none"/>
<text x="85.37492949521939" y="197.9427233107403" text-anchor="middle" font-family="Verdana" font-size="7.5" fill="rgb(0%, 0%, 0%)" > </text>
<circle cx="85.37492949521939" cy="174.9427233107403" r="5.0" stroke="none" stroke-width="1.0" fill="rgb(94%, 94%, 94%)"/>
<circle cx="85.37492949521939" cy="174.9427233107403" r="5.0" stroke="rgb(35%, 35%, 35%)" stroke-width="1.0" fill="none"/>
<text x="85.37492949521939" y="177.9427233107403" text-anchor="middle" font-family="Verdana" font-size="7.5" fill="rgb(0%, 0%, 0%)" > </text>
<circle cx="85.37492949521939" cy="154.9427233107403" r="5.0" stroke="none" stroke-width="1.0" fill="rgb(94%, 94%, 94%)"/>
<circle cx="85.37492949521939" cy="154.9427233107403" r="5.0" stroke="rgb(35%, 35%, 35%)" stroke-width="1.0" fill="none"/>
<text x="85.37492949521939" y="157.9427233107403" text-anchor="middle" font-family="Verdana" font-size="7.5" fill="rgb(0%, 0%, 0%)" > </text>
<circle cx="85.37492949521939" cy="134.9427233107403" r="5.0" stroke="none" stroke-width="1.0" fill="rgb(94%, 94%, 94%)"/>
<circle cx="85.37492949521939" cy="134.9427233107403" r="5.0" stroke="rgb(35%, 35%, 35%)" stroke-width="1.0" fill="none"/>
<text x="85.37492949521939" y="137.9427233107403" text-anchor="middle" font-family="Verdana" font-size="7.5" fill="rgb(0%, 0%, 0%)" > </text>
<circle cx="85.37492949521939" cy="114.94272331074028" r="5.0" stroke="none" stroke-width="1.0" fill="rgb(94%, 94%, 94%)"/>
<circle cx="85.37492949521939" cy="114.94272331074028" r="5.0" stroke="rgb(35%, 35%, 35%)" stroke-width="1.0" fill="none"/>
<text x="85.37492949521939" y="117.94272331074028" text-anchor="middle" font-family="Verdana" font-size="7.5" fill="rgb(0%, 0%, 0%)" > </text>
<circle cx="85.37492949521939" cy="94.94272331074028" r="5.0" stroke="none" stroke-width="1.0" fill="rgb(94%, 94%, 94%)"/>
<circle cx="85.37492949521939" cy="94.94272331074028" r="5.0" stroke="rgb(35%, 35%, 35%)" stroke-width="1.0" fill="none"/>
<text x="85.37492949521939" y="97.94272331074028" text-anchor="middle" font-family="Verdana" font-size="7.5" fill="rgb(0%, 0%, 0%)" > </text>
<circle cx="76.6249049840157" cy="79.7871945796847" r="5.0" stroke="none" stroke-width="1.0" fill="rgb(94%, 94%, 94%)"/>
<circle cx="76.6249049840157" cy="79.7871945796847" r="5.0" stroke="rgb(35%, 35%, 35%)" stroke-width="1.0" fill="none"/>
<text x="76.6249049840157" y="82.7871945796847" text-anchor="middle" font-family="Verdana" font-size="7.5" fill="rgb(0%, 0%, 0%)" > </text>
<circle cx="59.304420742647466" cy="69.7871532975442" r="5.0" stroke="none" stroke-width="1.0" fill="rgb(94%, 94%, 94%)"/>
<circle cx="59.304420742647466" cy="69.7871532975442" r="5.0" stroke="rgb(35%, 35%, 35%)" stroke-width="1.0" fill="none"/>
<text x="59.304420742647466" y="72.7871532975442" text-anchor="middle" font-family="Verdana" font-size="7.5" fill="rgb(0%, 0%, 0%)" > </text>
<circle cx="41.9839365012792" cy="59.78711201540369" r="5.0" stroke="none" stroke-width="1.0" fill="rgb(94%, 94%, 94%)"/>
<circle cx="41.9839365012792" cy="59.78711201540369" r="5.0" stroke="rgb(35%, 35%, 35%)" stroke-width="1.0" fill="none"/>
<text x="41.9839365012792" y="62.78711201540369" text-anchor="middle" font-family="Verdana" font-size="7.5" fill="rgb(0%, 0%, 0%)" > </text>
<circle cx="24.66345225991097" cy="49.78707073326319" r="5.0" stroke="none" stroke-width="1.0" fill="rgb(94%, 94%, 94%)"/>
<circle cx="24.66345225991097" cy="49.78707073326319" r="5.0" stroke="rgb(35%, 35%, 35%)" stroke-width="1.0" fill="none"/>
<text x="24.66345225991097" y="52.78707073326319" text-anchor="middle" font-family="Verdana" font-size="7.5" fill="rgb(0%, 0%, 0%)" > </text>
<circle cx="10.0" cy="40.23542376984784" r="5.0" stroke="none" stroke-width="1.0" fill="rgb(94%, 94%, 94%)"/>
<circle cx="10.0" cy="40.23542376984784" r="5.0" stroke="rgb(35%, 35%, 35%)" stroke-width="1.0" fill="none"/>
<text x="10.0" y="43.23542376984784" text-anchor="middle" font-family="Verdana" font-size="7.5" fill="rgb(0%, 0%, 0%)" > </text>
<circle cx="10.31357627212796" cy="22.738210797092222" r="5.0" stroke="none" stroke-width="1.0" fill="rgb(94%, 94%, 94%)"/>
<circle cx="10.31357627212796" cy="22.738210797092222" r="5.0" stroke="rgb(35%, 35%, 35%)" stroke-width="1.0" fill="none"/>
<text x="10.31357627212796" y="25.738210797092222" text-anchor="middle" font-family="Verdana" font-size="7.5" fill="rgb(0%, 0%, 0%)" > </text>
<circle cx="25.309862063569625" cy="13.718110778033974" r="5.0" stroke="none" stroke-width="1.0" fill="rgb(94%, 94%, 94%)"/>
<circle cx="25.309862063569625" cy="13.718110778033974" r="5.0" stroke="rgb(35%, 35%, 35%)" stroke-width="1.0" fill="none"/>
<text x="25.309862063569625" y="16.718110778033974" text-anchor="middle" font-family="Verdana" font-size="7.5" fill="rgb(0%, 0%, 0%)" > </text>
<circle cx="40.91351934338928" cy="21.641283841039808" r="5.0" stroke="none" stroke-width="1.0" fill="rgb(94%, 94%, 94%)"/>
<circle cx="40.91351934338928" cy="21.641283841039808" r="5.0" stroke="rgb(35%, 35%, 35%)" stroke-width="1.0" fill="none"/>
<text x="40.91351934338928" y="24.641283841039808" text-anchor="middle" font-family="Verdana" font-size="7.5" fill="rgb(0%, 0%, 0%)" > </text>
<circle cx="58.23400358475753" cy="31.64132512318031" r="5.0" stroke="none" stroke-width="1.0" fill="rgb(94%, 94%, 94%)"/>
<circle cx="58.23400358475753" cy="31.64132512318031" r="5.0" stroke="rgb(35%, 35%, 35%)" stroke-width="1.0" fill="none"/>
<text x="58.23400358475753" y="34.64132512318031" text-anchor="middle" font-family="Verdana" font-size="7.5" fill="rgb(0%, 0%, 0%)" > </text>
<circle cx="75.55448782612578" cy="41.64136640532081" r="5.0" stroke="none" stroke-width="1.0" fill="rgb(94%, 94%, 94%)"/>
<circle cx="75.55448782612578" cy="41.64136640532081" r="5.0" stroke="rgb(35%, 35%, 35%)" stroke-width="1.0" fill="none"/>
<text x="75.55448782612578" y="44.64136640532081" text-anchor="middle" font-family="Verdana" font-size="7.5" fill="rgb(0%, 0%, 0%)" > </text>
<circle cx="92.87497206749403" cy="51.64140768746131" r="5.0" stroke="none" stroke-width="1.0" fill="rgb(94%, 94%, 94%)"/>
<circle cx="92.87497206749403" cy="51.64140768746131" r="5.0" stroke="rgb(35%, 35%, 35%)" stroke-width="1.0" fill="none"/>
<text x="92.87497206749403" y="54.64140768746131" text-anchor="middle" font-family="Verdana" font-size="7.5" fill="rgb(0%, 0%, 0%)" > </text>
<circle cx="110.37497206746606" cy="51.64143896994244" r="5.0" stroke="none" stroke-width="1.0" fill="rgb(94%, 94%, 94%)"/>
<circle cx="110.37497206746606" cy="51.64143896994244" r="5.0" stroke="rgb(35%, 35%, 35%)" stroke-width="1.0" fill="none"/>
<text x="110.37497206746606" y="54.64143896994244" text-anchor="middle" font-family="Verdana" font-size="7.5" fill="rgb(0%, 0%, 0%)" > </text>
<circle cx="127.69549206027818" cy="41.64145961103401" r="5.0" stroke="none" stroke-width="1.0" fill="rgb(94%, 94%, 94%)"/>
<circle cx="127.69549206027818" cy="41.64145961103401" r="5.0" stroke="rgb(35%, 35%, 35%)" stroke-width="1.0" fill="none"/>
<text x="127.69549206027818" y="44.64145961103401" text-anchor="middle" font-family="Verdana" font-size="7.5" fill="rgb(0%, 0%, 0%)" > </text>
<circle cx="145.01601205309032" cy="31.641480252125575" r="5.0" stroke="none" stroke-width="1.0" fill="rgb(94%, 94%, 94%)"/>
<circle cx="145.01601205309032" cy="31.641480252125575" r="5.0" stroke="rgb(35%, 35%, 35%)" stroke-width="1.0" fill="none"/>
<text x="145.01601205309032" y="34.641480252125575" text-anchor="middle" font-family="Verdana" font-size="7.5" fill="rgb(0%, 0%, 0%)" > </text>
<circle cx="162.33653204590246" cy="21.64150089321714" r="5.0" stroke="none" stroke-width="1.0" fill="rgb(94%, 94%, 94%)"/>
<circle cx="162.33653204590246" cy="21.64150089321714" r="5.0" stroke="rgb(35%, 35%, 35%)" stroke-width="1.0" fill="none"/>
<text x="162.33653204590246" y="24.64150089321714" text-anchor="middle" font-family="Verdana" font-size="7.5" fill="rgb(0%, 0%, 0%)" > </text>
<circle cx="175.4027751383071" cy="10.0" r="5.0" stroke="none" stroke-width="1.0" fill="rgb(94%, 94%, 94%)"/>
<circle cx="175.4027751383071" cy="10.0" r="5.0" stroke="rgb(35%, 35%, 35%)" stroke-width="1.0" fill="none"/>
<text x="175.4027751383071" y="13.0" text-anchor="middle" font-family="Verdana" font-size="7.5" fill="rgb(0%, 0%, 0%)" > </text>
<circle cx="192.68012273076317" cy="12.782896290924157" r="5.0" stroke="none" stroke-width="1.0" fill="rgb(94%, 94%, 94%)"/>
<circle cx="192.68012273076317" cy="12.782896290924157" r="5.0" stroke="rgb(35%, 35%, 35%)" stroke-width="1.0" fill="none"/>
<text x="192.68012273076317" y="15.782896290924157" text-anchor="middle" font-family="Verdana" font-size="7.5" fill="rgb(0%, 0%, 0%)" > </text>
<circle cx="201.43012254970415" cy="27.938382253608438" r="5.0" stroke="none" stroke-width="1.0" fill="rgb(94%, 94%, 94%)"/>
<circle cx="201.43012254970415" cy="27.938382253608438" r="5.0" stroke="rgb(35%, 35%, 35%)" stroke-width="1.0" fill="none"/>
<text x="201.43012254970415" y="30.938382253608438" text-anchor="middle" font-family="Verdana" font-size="7.5" fill="rgb(0%, 0%, 0%)" > </text>
<circle cx="195.2014686587973" cy="44.29243747865519" r="5.0" stroke="none" stroke-width="1.0" fill="rgb(94%, 94%, 94%)"/>
<circle cx="195.2014686587973" cy="44.29243747865519" r="5.0" stroke="rgb(35%, 35%, 35%)" stroke-width="1.0" fill="none"/>
<text x="195.2014686587973" y="47.29243747865519" text-anchor="middle" font-family="Verdana" font-size="7.5" fill="rgb(0%, 0%, 0%)" > </text>
<circle cx="178.5864985041287" cy="49.78734588153685" r="5.0" stroke="none" stroke-width="1.0" fill="rgb(94%, 94%, 94%)"/>
<circle cx="178.5864985041287" cy="49.78734588153685" r="5.0" stroke="rgb(35%, 35%, 35%)" stroke-width="1.0" fill="none"/>
<text x="178.5864985041287" y="52.78734588153685" text-anchor="middle" font-family="Verdana" font-size="7.5" fill="rgb(0%, 0%, 0%)" > </text>
<circle cx="161.26597851131658" cy="59.787325240445284" r="5.0" stroke="none" stroke-width="1.0" fill="rgb(94%, 94%, 94%)"/>
<circle cx="161.26597851131658" cy="59.787325240445284" r="5.0" stroke="rgb(35%, 35%, 35%)" stroke-width="1.0" fill="none"/>
<text x="161.26597851131658" y="62.787325240445284" text-anchor="middle" font-family="Verdana" font-size="7.5" fill="rgb(0%, 0%, 0%)" > </text>
<circle cx="143.94545851850444" cy="69.78730459935372" r="5.0" stroke="none" stroke-width="1.0" fill="rgb(94%, 94%, 94%)"/>
<circle cx="143.94545851850444" cy="69.78730459935372" r="5.0" stroke="rgb(35%, 35%, 35%)" stroke-width="1.0" fill="none"/>
<text x="143.94545851850444" y="72.78730459935372" text-anchor="middle" font-family="Verdana" font-size="7.5" fill="rgb(0%, 0%, 0%)" > </text>
<circle cx="126.6249385256923" cy="79.78728395826215" r="5.0" stroke="none" stroke-width="1.0" fill="rgb(94%, 94%, 94%)"/>
<circle cx="126.6249385256923" cy="79.78728395826215" r="5.0" stroke="rgb(35%, 35%, 35%)" stroke-width="1.0" fill="none"/>
<text x="126.6249385256923" y="82.78728395826215" text-anchor="middle" font-family="Verdana" font-size="7.5" fill="rgb(0%, 0%, 0%)" > </text>
<circle cx="117.87492949521939" cy="94.94272331074028" r="5.0" stroke="none" stroke-width="1.0" fill="rgb(94%, 94%, 94%)"/>
<circle cx="117.87492949521939" cy="94.94272331074028" r="5.0" stroke="rgb(35%, 35%, 35%)" stroke-width="1.0" fill="none"/>
<text x="117.87492949521939" y="97.94272331074028" text-anchor="middle" font-family="Verdana" font-size="7.5" fill="rgb(0%, 0%, 0%)" > </text>
<circle cx="117.87492949521939" cy="114.94272331074028" r="5.0" stroke="none" stroke-width="1.0" fill="rgb(94%, 94%, 94%)"/>
<circle cx="117.87492949521939" cy="114.94272331074028" r="5.0" stroke="rgb(35%, 35%, 35%)" stroke-width="1.0" fill="none"/>
<text x="117.87492949521939" y="117.94272331074028" text-anchor="middle" font-family="Verdana" font-size="7.5" fill="rgb(0%, 0%, 0%)" > </text>
<circle cx="117.87492949521939" cy="134.9427233107403" r="5.0" stroke="none" stroke-width="1.0" fill="rgb(94%, 94%, 94%)"/>
<circle cx="117.87492949521939" cy="134.9427233107403" r="5.0" stroke="rgb(35%, 35%, 35%)" stroke-width="1.0" fill="none"/>
<text x="117.87492949521939" y="137.9427233107403" text-anchor="middle" font-family="Verdana" font-size="7.5" fill="rgb(0%, 0%, 0%)" > </text>
<circle cx="117.87492949521939" cy="154.9427233107403" r="5.0" stroke="none" stroke-width="1.0" fill="rgb(94%, 94%, 94%)"/>
<circle cx="117.87492949521939" cy="154.9427233107403" r="5.0" stroke="rgb(35%, 35%, 35%)" stroke-width="1.0" fill="none"/>
<text x="117.87492949521939" y="157.9427233107403" text-anchor="middle" font-family="Verdana" font-size="7.5" fill="rgb(0%, 0%, 0%)" > </text>
<circle cx="117.87492949521939" cy="174.9427233107403" r="5.0" stroke="none" stroke-width="1.0" fill="rgb(94%, 94%, 94%)"/>
<circle cx="117.87492949521939" cy="174.9427233107403" r="5.0" stroke="rgb(35%, 35%, 35%)" stroke-width="1.0" fill="none"/>
<text x="117.87492949521939" y="177.9427233107403" text-anchor="middle" font-family="Verdana" font-size="7.5" fill="rgb(0%, 0%, 0%)" > </text>
<circle cx="117.87492949521939" cy="194.9427233107403" r="5.0" stroke="none" stroke-width="1.0" fill="rgb(94%, 94%, 94%)"/>
<circle cx="117.87492949521939" cy="194.9427233107403" r="5.0" stroke="rgb(35%, 35%, 35%)" stroke-width="1.0" fill="none"/>
<text x="117.87492949521939" y="197.9427233107403" text-anchor="middle" font-family="Verdana" font-size="7.5" fill="rgb(0%, 0%, 0%)" > </text>
<line x1="85.37492949521939" y1="202.4427233107403" x2="85.37492949521939" y2="207.4427233107403" stroke="rgb(25%, 25%, 25%)" stroke-width="1.0" />
<text x="85.37492949521939" y="217.9427233107403" text-anchor="middle" font-family="Verdana" font-size="7.5" fill="rgb(25%, 25%, 25%)" >1</text>
<line x1="19.265975015366223" y1="54.99449230200733" x2="15.6676568523364" y2="58.46610668117009" stroke="rgb(25%, 25%, 25%)" stroke-width="1.0" />
<text x="10.270179607791654" y="66.67352824991423" text-anchor="middle" font-family="Verdana" font-size="7.5" fill="rgb(25%, 25%, 25%)" >10</text>
<line x1="141.26601979349965" y1="25.146285254821038" x2="138.76602495377253" y2="20.816155256618003" stroke="rgb(25%, 25%, 25%)" stroke-width="1.0" />
<text x="135.01603269418186" y="17.320960259313438" text-anchor="middle" font-family="Verdana" font-size="7.5" fill="rgb(25%, 25%, 25%)" >20</text>
<line x1="125.37492949521939" y1="94.94272331074028" x2="130.3749294952194" y2="94.94272331074028" stroke="rgb(25%, 25%, 25%)" stroke-width="1.0" />
<text x="137.8749294952194" y="97.94272331074028" text-anchor="middle" font-family="Verdana" font-size="7.5" fill="rgb(25%, 25%, 25%)" >30</text>
<line x1="117.87492949521939" y1="202.4427233107403" x2="117.87492949521939" y2="207.4427233107403" stroke="rgb(25%, 25%, 25%)" stroke-width="1.0" />
<text x="117.87492949521939" y="217.9427233107403" text-anchor="middle" font-family="Verdana" font-size="7.5" fill="rgb(25%, 25%, 25%)" >35</text>
</svg>
