<?xml version="1.0" encoding="UTF-8"?>
<!DOCTYPE svg PUBLIC "-//W3C//DTD SVG 1.1//EN" 
"http://www.w3.org/Graphics/SVG/1.1/DTD/svg11.dtd">

<svg width="100%" height="100%" version="1.1"
xmlns="http://www.w3.org/2000/svg">
<line x1="15.0" y1="160.70763161412498" x2="22.5" y2="160.70763161412498" stroke="rgb(35%, 35%, 35%)" stroke-width="1.0" />
<line x1="27.5" y1="155.70763161412498" x2="27.5" y2="145.70763161412498" stroke="rgb(35%, 35%, 35%)" stroke-width="1.0" />
<line x1="27.5" y1="135.70763161412498" x2="27.5" y2="125.70763161412498" stroke="rgb(35%, 35%, 35%)" stroke-width="1.0" />
<line x1="27.5" y1="115.70763161412498" x2="27.5" y2="105.70763161412499" stroke="rgb(35%, 35%, 35%)" stroke-width="1.0" />
<line x1="27.5" y1="95.70763161412499" x2="27.5" y2="85.70763161412499" stroke="rgb(35%, 35%, 35%)" stroke-width="1.0" />
<line x1="27.5" y1="75.70763161412499" x2="27.5" y2="65.70763161412499" stroke="rgb(35%, 35%, 35%)" stroke-width="1.0" />
<line x1="27.76862854942486" y1="55.7148529586633" x2="28.171572589132275" y2="48.225662382665206" stroke="rgb(35%, 35%, 35%)" stroke-width="1.0" />
<line x1="32.81442372931807" y1="40.81086458473649" x2="39.37577740923906" y2="37.17782491116546" stroke="rgb(35%, 35%, 35%)" stroke-width="1.0" />
<line x1="48.12422259076094" y1="37.17782491116546" x2="54.68557627068192" y2="40.81086458473649" stroke="rgb(35%, 35%, 35%)" stroke-width="1.0" />
<line x1="59.32842741086772" y1="48.225662382665206" x2="59.73137145057514" y2="55.7148529586633" stroke="rgb(35%, 35%, 35%)" stroke-width="1.0" />
<line x1="60.0" y1="65.70763161412499" x2="60.0" y2="75.70763161412499" stroke="rgb(35%, 35%, 35%)" stroke-width="1.0" />
<line x1="60.0" y1="85.70763161412499" x2="60.0" y2="95.70763161412499" stroke="rgb(35%, 35%, 35%)" stroke-width="1.0" />
<line x1="60.0" y1="105.70763161412499" x2="60.0" y2="115.70763161412498" stroke="rgb(35%, 35%, 35%)" stroke-width="1.0" />
<line x1="60.0" y1="125.70763161412498" x2="60.0" y2="135.70763161412498" stroke="rgb(35%, 35%, 35%)" stroke-width="1.0" />
<line x1="60.0" y1="145.70763161412498" x2="60.0" y2="155.70763161412498" stroke="rgb(35%, 35%, 35%)" stroke-width="1.0" />
<line x1="65.0" y1="160.70763161412498" x2="72.5" y2="160.70763161412498" stroke="rgb(35%, 35%, 35%)" stroke-width="1.0" />
<line x1="82.5" y1="160.70763161412498" x2="90.0" y2="160.70763161412498" stroke="rgb(35%, 35%, 35%)" stroke-width="1.0" />
<line x1="95.0" y1="155.70763161412498" x2="95.0" y2="145.70763161412498" stroke="rgb(35%, 35%, 35%)" stroke-width="1.0" />
<line x1="95.0" y1="135.70763161412498" x2="95.0" y2="125.70763161412499" stroke="rgb(35%, 35%, 35%)" stroke-width="1.0" />
<line x1="95.0" y1="115.70763161412499" x2="95.0" y2="105.70763161412499" stroke="rgb(35%, 35%, 35%)" stroke-width="1.0" />
<line x1="95.0" y1="95.70763161412499" x2="95.0" y2="85.70763161412499" stroke="rgb(35%, 35%, 35%)" stroke-width="1.0" />
<line x1="95.0" y1="75.70763161412499" x2="95.0" y2="65.70763161412499" stroke="rgb(35%, 35%, 35%)" stroke-width="1.0" />
<line x1="95.0" y1="55.70763161412498" x2="95.0" y2="45.70763161412498" stroke="rgb(35%, 35%, 35%)" stroke-width="1.0" />
<line x1="93.98607796122975" y1="35.81151457106975" x2="92.46518765153114" y2="28.467303989589" stroke="rgb(35%, 35%, 35%)" stroke-width="1.0" />
<line x1="94.60803530709629" y1="19.693712885121414" x2="99.34321242573162" y2="13.877474061412357" stroke="rgb(35%, 35%, 35%)" stroke-width="1.0" />
<line x1="107.49998212006702" y1="10.0" x2="115.00001787993298" y2="10.0" stroke="rgb(35%, 35%, 35%)" stroke-width="1.0" />
<line x1="123.15678757426838" y1="13.877474061412357" x2="127.89196469290371" y2="19.693712885121414" stroke="rgb(35%, 35%, 35%)" stroke-width="1.0" />
<line x1="130.03481234846888" y1="28.467303989589" x2="128.51392203877023" y2="35.81151457106975" stroke="rgb(35%, 35%, 35%)" stroke-width="1.0" />
<line x1="127.5" y1="45.70763161412498" x2="127.5" y2="55.70763161412498" stroke="rgb(35%, 35%, 35%)" stroke-width="1.0" />
<line x1="127.5" y1="65.70763161412499" x2="127.5" y2="75.70763161412499" stroke="rgb(35%, 35%, 35%)" stroke-width="1.0" />
<line x1="127.5" y1="85.70763161412499" x2="127.5" y2="95.70763161412499" stroke="rgb(35%, 35%, 35%)" stroke-width="1.0" />
<line x1="127.5" y1="105.70763161412499" x2="127.5" y2="115.70763161412499" stroke="rgb(35%, 35%, 35%)" stroke-width="1.0" />
<line x1="127.5" y1="125.70763161412499" x2="127.5" y2="135.70763161412498" stroke="rgb(35%, 35%, 35%)" stroke-width="1.0" />
<line x1="127.5" y1="145.70763161412498" x2="127.5" y2="155.70763161412498" stroke="rgb(35%, 35%, 35%)" stroke-width="1.0" />
<line x1="32.5" y1="160.70763161412498" x2="55.0" y2="160.70763161412498" stroke="rgb(0%, 0%, 100%)" stroke-width="1.0" />
<line x1="32.5" y1="140.70763161412498" x2="55.0" y2="140.70763161412498" stroke="rgb(0%, 0%, 100%)" stroke-width="1.0" />
<line x1="32.5" y1="120.70763161412498" x2="55.0" y2="120.70763161412498" stroke="rgb(0%, 0%, 100%)" stroke-width="1.0" />
<line x1="32.5" y1="100.70763161412499" x2="55.0" y2="100.70763161412499" stroke="rgb(0%, 0%, 100%)" stroke-width="1.0" />
<line x1="32.5" y1="80.70763161412499" x2="55.0" y2="80.70763161412499" stroke="rgb(0%, 0%, 100%)" stroke-width="1.0" />
<line x1="32.5" y1="60.70763161412499" x2="55.0" y2="60.70763161412499" stroke="rgb(0%, 0%, 100%)" stroke-width="1.0" />
<line x1="100.0" y1="160.70763161412498" x2="122.5" y2="160.70763161412498" stroke="rgb(0%, 0%, 100%)" stroke-width="1.0" />
<line x1="100.0" y1="140.70763161412498" x2="122.5" y2="140.70763161412498" stroke="rgb(0%, 0%, 100%)" stroke-width="1.0" />
<line x1="100.0" y1="120.70763161412499" x2="122.5" y2="120.70763161412499" stroke="rgb(0%, 0%, 100%)" stroke-width="1.0" />
<line x1="100.0" y1="100.70763161412499" x2="122.5" y2="100.70763161412499" stroke="rgb(0%, 0%, 100%)" stroke-width="1.0" />
<line x1="100.0" y1="80.70763161412499" x2="122.5" y2="80.70763161412499" stroke="rgb(0%, 0%, 100%)" stroke-width="1.0" />
<line x1="100.0" y1="60.70763161412499" x2="122.5" y2="60.70763161412499" stroke="rgb(0%, 0%, 100%)" stroke-width="1.0" />
<line x1="100.0" y1="40.70763161412498" x2="122.5" y2="40.70763161412498" stroke="rgb(0%, 0%, 100%)" stroke-width="1.0" />
<circle cx="10.0" cy="160.70763161412498" r="5.0" stroke="none" stroke-width="1.0" fill="rgb(94%, 94%, 94%)"/>
<circle cx="10.0" cy="160.70763161412498" r="5.0" stroke="rgb(35%, 35%, 35%)" stroke-width="1.0" fill="none"/>
<text x="10.0" y="163.70763161412498" text-anchor="middle" font-family="Verdana" font-size="7.5" fill="rgb(0%, 0%, 0%)" > </text>
<circle cx="27.5" cy="160.70763161412498" r="5.0" stroke="none" stroke-width="1.0" fill="rgb(94%, 94%, 94%)"/>
<circle cx="27.5" cy="160.70763161412498" r="5.0" stroke="rgb(35%, 35%, 35%)" stroke-width="1.0" fill="none"/>
<text x="27.5" y="163.70763161412498" text-anchor="middle" font-family="Verdana" font-size="7.5" fill="rgb(0%, 0%, 0%)" > </text>
<circle cx="27.5" cy="140.70763161412498" r="5.0" stroke="none" stroke-width="1.0" fill="rgb(94%, 94%, 94%)"/>
<circle cx="27.5" cy="140.70763161412498" r="5.0" stroke="rgb(35%, 35%, 35%)" stroke-width="1.0" fill="none"/>
<text x="27.5" y="143.70763161412498" text-anchor="middle" font-family="Verdana" font-size="7.5" fill="rgb(0%, 0%, 0%)" > </text>
<circle cx="27.5" cy="120.70763161412498" r="5.0" stroke="none" stroke-width="1.0" fill="rgb(94%, 94%, 94%)"/>
<circle cx="27.5" cy="120.70763161412498" r="5.0" stroke="rgb(35%, 35%, 35%)" stroke-width="1.0" fill="none"/>
<text x="27.5" y="123.70763161412498" text-anchor="middle" font-family="Verdana" font-size="7.5" fill="rgb(0%, 0%, 0%)" > </text>
<circle cx="27.5" cy="100.70763161412499" r="5.0" stroke="none" stroke-width="1.0" fill="rgb(94%, 94%, 94%)"/>
<circle cx="27.5" cy="100.70763161412499" r="5.0" stroke="rgb(35%, 35%, 35%)" stroke-width="1.0" fill="none"/>
<text x="27.5" y="103.70763161412499" text-anchor="middle" font-family="Verdana" font-size="7.5" fill="rgb(0%, 0%, 0%)" > </text>
<circle cx="27.5" cy="80.70763161412499" r="5.0" stroke="none" stroke-width="1.0" fill="rgb(94%, 94%, 94%)"/>
<circle cx="27.5" cy="80.70763161412499" r="5.0" stroke="rgb(35%, 35%, 35%)" stroke-width="1.0" fill="none"/>
<text x="27.5" y="83.70763161412499" text-anchor="middle" font-family="Verdana" font-size="7.5" fill="rgb(0%, 0%, 0%)" > </text>
<circle cx="27.5" cy="60.70763161412499" r="5.0" stroke="none" stroke-width="1.0" fill="rgb(94%, 94%, 94%)"/>
<circle cx="27.5" cy="60.70763161412499" r="5.0" stroke="rgb(35%, 35%, 35%)" stroke-width="1.0" fill="none"/>
<text x="27.5" y="63.70763161412499" text-anchor="middle" font-family="Verdana" font-size="7.5" fill="rgb(0%, 0%, 0%)" > </text>
<circle cx="28.440201138557136" cy="43.2328837272035" r="5.0" stroke="none" stroke-width="1.0" fill="rgb(94%, 94%, 94%)"/>
<circle cx="28.440201138557136" cy="43.2328837272035" r="5.0" stroke="rgb(35%, 35%, 35%)" stroke-width="1.0" fill="none"/>
<text x="28.440201138557136" y="46.2328837272035" text-anchor="middle" font-family="Verdana" font-size="7.5" fill="rgb(0%, 0%, 0%)" > </text>
<circle cx="43.75" cy="34.75580576869845" r="5.0" stroke="none" stroke-width="1.0" fill="rgb(94%, 94%, 94%)"/>
<circle cx="43.75" cy="34.75580576869845" r="5.0" stroke="rgb(35%, 35%, 35%)" stroke-width="1.0" fill="none"/>
<text x="43.75" y="37.75580576869845" text-anchor="middle" font-family="Verdana" font-size="7.5" fill="rgb(0%, 0%, 0%)" > </text>
<circle cx="59.05979886144286" cy="43.2328837272035" r="5.0" stroke="none" stroke-width="1.0" fill="rgb(94%, 94%, 94%)"/>
<circle cx="59.05979886144286" cy="43.2328837272035" r="5.0" stroke="rgb(35%, 35%, 35%)" stroke-width="1.0" fill="none"/>
<text x="59.05979886144286" y="46.2328837272035" text-anchor="middle" font-family="Verdana" font-size="7.5" fill="rgb(0%, 0%, 0%)" > </text>
<circle cx="60.0" cy="60.70763161412499" r="5.0" stroke="none" stroke-width="1.0" fill="rgb(94%, 94%, 94%)"/>
<circle cx="60.0" cy="60.70763161412499" r="5.0" stroke="rgb(35%, 35%, 35%)" stroke-width="1.0" fill="none"/>
<text x="60.0" y="63.70763161412499" text-anchor="middle" font-family="Verdana" font-size="7.5" fill="rgb(0%, 0%, 0%)" > </text>
<circle cx="60.0" cy="80.70763161412499" r="5.0" stroke="none" stroke-width="1.0" fill="rgb(94%, 94%, 94%)"/>
<circle cx="60.0" cy="80.70763161412499" r="5.0" stroke="rgb(35%, 35%, 35%)" stroke-width="1.0" fill="none"/>
<text x="60.0" y="83.70763161412499" text-anchor="middle" font-family="Verdana" font-size="7.5" fill="rgb(0%, 0%, 0%)" > </text>
<circle cx="60.0" cy="100.70763161412499" r="5.0" stroke="none" stroke-width="1.0" fill="rgb(94%, 94%, 94%)"/>
<circle cx="60.0" cy="100.70763161412499" r="5.0" stroke="rgb(35%, 35%, 35%)" stroke-width="1.0" fill="none"/>
<text x="60.0" y="103.70763161412499" text-anchor="middle" font-family="Verdana" font-size="7.5" fill="rgb(0%, 0%, 0%)" > </text>
<circle cx="60.0" cy="120.70763161412498" r="5.0" stroke="none" stroke-width="1.0" fill="rgb(94%, 94%, 94%)"/>
<circle cx="60.0" cy="120.70763161412498" r="5.0" stroke="rgb(35%, 35%, 35%)" stroke-width="1.0" fill="none"/>
<text x="60.0" y="123.70763161412498" text-anchor="middle" font-family="Verdana" font-size="7.5" fill="rgb(0%, 0%, 0%)" > </text>
<circle cx="60.0" cy="140.70763161412498" r="5.0" stroke="none" stroke-width="1.0" fill="rgb(94%, 94%, 94%)"/>
<circle cx="60.0" cy="140.70763161412498" r="5.0" stroke="rgb(35%, 35%, 35%)" stroke-width="1.0" fill="none"/>
<text x="60.0" y="143.70763161412498" text-anchor="middle" font-family="Verdana" font-size="7.5" fill="rgb(0%, 0%, 0%)" > </text>
<circle cx="60.0" cy="160.70763161412498" r="5.0" stroke="none" stroke-width="1.0" fill="rgb(94%, 94%, 94%)"/>
<circle cx="60.0" cy="160.70763161412498" r="5.0" stroke="rgb(35%, 35%, 35%)" stroke-width="1.0" fill="none"/>
<text x="60.0" y="163.70763161412498" text-anchor="middle" font-family="Verdana" font-size="7.5" fill="rgb(0%, 0%, 0%)" > </text>
<circle cx="77.5" cy="160.70763161412498" r="5.0" stroke="none" stroke-width="1.0" fill="rgb(94%, 94%, 94%)"/>
<circle cx="77.5" cy="160.70763161412498" r="5.0" stroke="rgb(35%, 35%, 35%)" stroke-width="1.0" fill="none"/>
<text x="77.5" y="163.70763161412498" text-anchor="middle" font-family="Verdana" font-size="7.5" fill="rgb(0%, 0%, 0%)" > </text>
<circle cx="95.0" cy="160.70763161412498" r="5.0" stroke="none" stroke-width="1.0" fill="rgb(94%, 94%, 94%)"/>
<circle cx="95.0" cy="160.70763161412498" r="5.0" stroke="rgb(35%, 35%, 35%)" stroke-width="1.0" fill="none"/>
<text x="95.0" y="163.70763161412498" text-anchor="middle" font-family="Verdana" font-size="7.5" fill="rgb(0%, 0%, 0%)" > </text>
<circle cx="95.0" cy="140.70763161412498" r="5.0" stroke="none" stroke-width="1.0" fill="rgb(94%, 94%, 94%)"/>
<circle cx="95.0" cy="140.70763161412498" r="5.0" stroke="rgb(35%, 35%, 35%)" stroke-width="1.0" fill="none"/>
<text x="95.0" y="143.70763161412498" text-anchor="middle" font-family="Verdana" font-size="7.5" fill="rgb(0%, 0%, 0%)" > </text>
<circle cx="95.0" cy="120.70763161412499" r="5.0" stroke="none" stroke-width="1.0" fill="rgb(94%, 94%, 94%)"/>
<circle cx="95.0" cy="120.70763161412499" r="5.0" stroke="rgb(35%, 35%, 35%)" stroke-width="1.0" fill="none"/>
<text x="95.0" y="123.70763161412499" text-anchor="middle" font-family="Verdana" font-size="7.5" fill="rgb(0%, 0%, 0%)" > </text>
<circle cx="95.0" cy="100.70763161412499" r="5.0" stroke="none" stroke-width="1.0" fill="rgb(94%, 94%, 94%)"/>
<circle cx="95.0" cy="100.70763161412499" r="5.0" stroke="rgb(35%, 35%, 35%)" stroke-width="1.0" fill="none"/>
<text x="95.0" y="103.70763161412499" text-anchor="middle" font-family="Verdana" font-size="7.5" fill="rgb(0%, 0%, 0%)" > </text>
<circle cx="95.0" cy="80.70763161412499" r="5.0" stroke="none" stroke-width="1.0" fill="rgb(94%, 94%, 94%)"/>
<circle cx="95.0" cy="80.70763161412499" r="5.0" stroke="rgb(35%, 35%, 35%)" stroke-width="1.0" fill="none"/>
<text x="95.0" y="83.70763161412499" text-anchor="middle" font-family="Verdana" font-size="7.5" fill="rgb(0%, 0%, 0%)" > </text>
<circle cx="95.0" cy="60.70763161412499" r="5.0" stroke="none" stroke-width="1.0" fill="rgb(94%, 94%, 94%)"/>
<circle cx="95.0" cy="60.70763161412499" r="5.0" stroke="rgb(35%, 35%, 35%)" stroke-width="1.0" fill="none"/>
<text x="95.0" y="63.70763161412499" text-anchor="middle" font-family="Verdana" font-size="7.5" fill="rgb(0%, 0%, 0%)" > </text>
<circle cx="95.0" cy="40.70763161412498" r="5.0" stroke="none" stroke-width="1.0" fill="rgb(94%, 94%, 94%)"/>
<circle cx="95.0" cy="40.70763161412498" r="5.0" stroke="rgb(35%, 35%, 35%)" stroke-width="1.0" fill="none"/>
<text x="95.0" y="43.70763161412498" text-anchor="middle" font-family="Verdana" font-size="7.5" fill="rgb(0%, 0%, 0%)" > </text>
<circle cx="91.45126561276089" cy="23.57118694653377" r="5.0" stroke="none" stroke-width="1.0" fill="rgb(94%, 94%, 94%)"/>
<circle cx="91.45126561276089" cy="23.57118694653377" r="5.0" stroke="rgb(35%, 35%, 35%)" stroke-width="1.0" fill="none"/>
<text x="91.45126561276089" y="26.57118694653377" text-anchor="middle" font-family="Verdana" font-size="7.5" fill="rgb(0%, 0%, 0%)" > </text>
<circle cx="102.49998212006702" cy="10.0" r="5.0" stroke="none" stroke-width="1.0" fill="rgb(94%, 94%, 94%)"/>
<circle cx="102.49998212006702" cy="10.0" r="5.0" stroke="rgb(35%, 35%, 35%)" stroke-width="1.0" fill="none"/>
<text x="102.49998212006702" y="13.0" text-anchor="middle" font-family="Verdana" font-size="7.5" fill="rgb(0%, 0%, 0%)" > </text>
<circle cx="120.00001787993298" cy="10.0" r="5.0" stroke="none" stroke-width="1.0" fill="rgb(94%, 94%, 94%)"/>
<circle cx="120.00001787993298" cy="10.0" r="5.0" stroke="rgb(35%, 35%, 35%)" stroke-width="1.0" fill="none"/>
<text x="120.00001787993298" y="13.0" text-anchor="middle" font-family="Verdana" font-size="7.5" fill="rgb(0%, 0%, 0%)" > </text>
<circle cx="131.0487343872391" cy="23.57118694653377" r="5.0" stroke="none" stroke-width="1.0" fill="rgb(94%, 94%, 94%)"/>
<circle cx="131.0487343872391" cy="23.57118694653377" r="5.0" stroke="rgb(35%, 35%, 35%)" stroke-width="1.0" fill="none"/>
<text x="131.0487343872391" y="26.57118694653377" text-anchor="middle" font-family="Verdana" font-size="7.5" fill="rgb(0%, 0%, 0%)" > </text>
<circle cx="127.5" cy="40.70763161412498" r="5.0" stroke="none" stroke-width="1.0" fill="rgb(94%, 94%, 94%)"/>
<circle cx="127.5" cy="40.70763161412498" r="5.0" stroke="rgb(35%, 35%, 35%)" stroke-width="1.0" fill="none"/>
<text x="127.5" y="43.70763161412498" text-anchor="middle" font-family="Verdana" font-size="7.5" fill="rgb(0%, 0%, 0%)" > </text>
<circle cx="127.5" cy="60.70763161412499" r="5.0" stroke="none" stroke-width="1.0" fill="rgb(94%, 94%, 94%)"/>
<circle cx="127.5" cy="60.70763161412499" r="5.0" stroke="rgb(35%, 35%, 35%)" stroke-width="1.0" fill="none"/>
<text x="127.5" y="63.70763161412499" text-anchor="middle" font-family="Verdana" font-size="7.5" fill="rgb(0%, 0%, 0%)" > </text>
<circle cx="127.5" cy="80.70763161412499" r="5.0" stroke="none" stroke-width="1.0" fill="rgb(94%, 94%, 94%)"/>
<circle cx="127.5" cy="80.70763161412499" r="5.0" stroke="rgb(35%, 35%, 35%)" stroke-width="1.0" fill="none"/>
<text x="127.5" y="83.70763161412499" text-anchor="middle" font-family="Verdana" font-size="7.5" fill="rgb(0%, 0%, 0%)" > </text>
<circle cx="127.5" cy="100.70763161412499" r="5.0" stroke="none" stroke-width="1.0" fill="rgb(94%, 94%, 94%)"/>
<circle cx="127.5" cy="100.70763161412499" r="5.0" stroke="rgb(35%, 35%, 35%)" stroke-width="1.0" fill="none"/>
<text x="127.5" y="103.70763161412499" text-anchor="middle" font-family="Verdana" font-size="7.5" fill="rgb(0%, 0%, 0%)" > </text>
<circle cx="127.5" cy="120.70763161412499" r="5.0" stroke="none" stroke-width="1.0" fill="rgb(94%, 94%, 94%)"/>
<circle cx="127.5" cy="120.70763161412499" r="5.0" stroke="rgb(35%, 35%, 35%)" stroke-width="1.0" fill="none"/>
<text x="127.5" y="123.70763161412499" text-anchor="middle" font-family="Verdana" font-size="7.5" fill="rgb(0%, 0%, 0%)" > </text>
<circle cx="127.5" cy="140.70763161412498" r="5.0" stroke="none" stroke-width="1.0" fill="rgb(94%, 94%, 94%)"/>
<circle cx="127.5" cy="140.70763161412498" r="5.0" stroke="rgb(35%, 35%, 35%)" stroke-width="1.0" fill="none"/>
<text x="127.5" y="143.70763161412498" text-anchor="middle" font-family="Verdana" font-size="7.5" fill="rgb(0%, 0%, 0%)" > </text>
<circle cx="127.5" cy="160.70763161412498" r="5.0" stroke="none" stroke-width="1.0" fill="rgb(94%, 94%, 94%)"/>
<circle cx="127.5" cy="160.70763161412498" r="5.0" stroke="rgb(35%, 35%, 35%)" stroke-width="1.0" fill="none"/>
<text x="127.5" y="163.70763161412498" text-anchor="middle" font-family="Verdana" font-size="7.5" fill="rgb(0%, 0%, 0%)" > </text>
<line x1="10.0" y1="168.20763161412498" x2="10.0" y2="173.20763161412498" stroke="rgb(25%, 25%, 25%)" stroke-width="1.0" />
<text x="10.0" y="183.70763161412498" text-anchor="middle" font-family="Verdana" font-size="7.5" fill="rgb(25%, 25%, 25%)" >1</text>
<line x1="65.41646937038367" y1="39.2525897630895" x2="69.65424970967753" y2="36.59906045368018" stroke="rgb(25%, 25%, 25%)" stroke-width="1.0" />
<text x="76.01092021861834" y="35.61876648956621" text-anchor="middle" font-family="Verdana" font-size="7.5" fill="rgb(25%, 25%, 25%)" >10</text>
<line x1="87.5" y1="120.70763161412499" x2="82.5" y2="120.70763161412499" stroke="rgb(25%, 25%, 25%)" stroke-width="1.0" />
<text x="75.0" y="123.70763161412499" text-anchor="middle" font-family="Verdana" font-size="7.5" fill="rgb(25%, 25%, 25%)" >20</text>
<line x1="135.0" y1="60.70763161412499" x2="140.0" y2="60.70763161412499" stroke="rgb(25%, 25%, 25%)" stroke-width="1.0" />
<text x="147.5" y="63.70763161412499" text-anchor="middle" font-family="Verdana" font-size="7.5" fill="rgb(25%, 25%, 25%)" >30</text>
<line x1="127.5" y1="168.20763161412498" x2="127.5" y2="173.20763161412498" stroke="rgb(25%, 25%, 25%)" stroke-width="1.0" />
<text x="127.5" y="183.70763161412498" text-anchor="middle" font-family="Verdana" font-size="7.5" fill="rgb(25%, 25%, 25%)" >35</text>
</svg>
